Taking a Leap of Faith: Association to Causation
…
Use a caliper to reduce possible distances eligible for matching

Matched outputs

Code

final_match <- MatchIt::match.data(matched_out) %>% 
  dplyr::arrange(subclass, desc(Washer)) %>%
  dplyr::rename(prop_score = distance) 
  
final_match %>%
  dplyr::select(subclass, prop_score, price, Washer, beds, bathroom, room_type, dist_from_mpls)

# A tibble: 1,762 × 8
   subclass prop_score price Washer  beds bathroom room_type      dist_from_mpls
   <fct>         <dbl> <dbl> <lgl>  <int>    <dbl> <chr>                   <dbl>
 1 1             0.368    58 TRUE       2        1 Private room           0.0915
 2 1             0.368   236 FALSE      2        1 Entire home/a…         0.286 
 3 2             0.436    84 TRUE       1        1 Entire home/a…         0.0358
 4 2             0.436   104 FALSE      1        1 Entire home/a…         0.0391
 5 3             0.386    82 TRUE       3        1 Entire home/a…         0.155 
 6 3             0.386    58 FALSE      1        1 Private room           0.0704
 7 4             0.307   150 TRUE       5        1 Entire home/a…         0.664 
 8 4             0.307    55 FALSE      1        1 Private room           0.461 
 9 5             0.498    43 TRUE       1        2 Private room           0.243 
10 5             0.498    89 FALSE      1        2 Private room           0.246 
# … with 1,752 more rows
…
